Aplicación de Text Mining en comentarios de YouTube
…
8. Nube de palabras

# A tibble: 50 × 2
   palabra_final          n
   <chr>              <int>
 1 fuerza_popular       345
 2 voto                 271
 3 peru                 197
 4 voto_viciado          91
 5 elecciones            82
 6 fraude                62
 7 congreso              58
 8 juntos_por_el_peru    54
 9 gobierno              51
10 gente                 41
# ℹ 40 more rows
…
    sentimiento = str_to_lower(sentimiento),
    sentimiento = str_squish(sentimiento),
    sentimiento = stri_trans_general(sentimiento, "Latin-ASCII")
  ) %>%
  filter(
    !is.na(palabra),
    palabra != "",
    !is.na(sentimiento),
    sentimiento != ""
  ) %>%
  distinct(palabra, sentimiento)

diccionario_sentimientos

# A tibble: 12,393 × 2
   palabra    sentimiento
   <chr>      <chr>      
 1 abaco      confianza  
 2 abad       confianza  
 3 abanderar  negativo   
 4 abandonado ira        
 5 abandonado miedo      
 6 abandonado negativo   
 7 abandonado tristeza   
 8 abandonar  miedo      
 9 abandonar  negativo   
10 abandonar  tristeza   
# ℹ 12,383 more rows
…
tokens_sentimientos

# A tibble: 8,223 × 5
   id_comentario palabra_original palabra_final palabra_detectada sentimiento
           <int> <chr>            <chr>         <chr>             <chr>      
 1             1 problema         problema      problema          miedo      
 2             1 problema         problema      problema          negativo   
 3             1 problema         problema      problema          tristeza   
 4             1 dictadura        dictadura     dictadura         disgusto   
 5             1 dictadura        dictadura     dictadura         ira        
 6             1 dictadura        dictadura     dictadura         miedo      
 7             1 dictadura        dictadura     dictadura         negativo   
 8             1 dictadura        dictadura     dictadura         premonicion
 9             1 dictadura        dictadura     dictadura         tristeza   
10             1 criminal         criminal      criminal          disgusto   
# ℹ 8,213 more rows
…
9.6 Palabras asociadas a los cinco sentimientos más frecuentes

palabras_top5_sentimientos <- tokens_sentimientos %>%
  semi_join(
    top_5_sentimientos,
    by = "sentimiento"
  ) %>%
  count(sentimiento, palabra_detectada, sort = TRUE) %>%
  group_by(sentimiento) %>%
  slice_max(n, n = 10, with_ties = FALSE) %>%
  ungroup()

palabras_top5_sentimientos

# A tibble: 50 × 3
   sentimiento palabra_detectada     n
   <chr>       <chr>             <int>
 1 confianza   voto                202
 2 confianza   congreso             47
 3 confianza   dios                 37
 4 confianza   politica             34
 5 confianza   presidente           30
 6 confianza   mayoria              26
 7 confianza   blanco               24
 8 confianza   excelente            24
 9 confianza   ley                  19
10 confianza   grande               17
# ℹ 40 more rows
…
